{
    "ClassName": "Core\\Model\\Group",
    "Table": "hazo_group",
    "Label": "Users Group",
    "Column": {
        "ID": {
            "Attribute": "ID",
            "Name": "id",
            "Label": "Group code",
            "Null": 0,
            "Length": "",
            "Type": "",
            "Primary": 1,
            "Unique": "",
            "AutoIncrement": 1,
            "Default": "",
            "Reference": {
                "Table": "",
                "Column": "",
                "Label": ""
            }
        },
        "name": {
            "Attribute": "name",
            "Name": "name",
            "Label": "Group name",
            "Null": 0,
            "Length": "40",
            "Type": "String",
            "Primary": 0,
            "Unique": 1,
            "AutoIncrement": 0,
            "Default": "",
            "Reference": {
                "Table": "",
                "Column": "",
                "Label": ""
            }
        },
        "mode": {
            "Attribute": "mode",
            "Name": "mode",
            "Label": "Group mode",
            "Null": 0,
            "Length": "50",
            "Type": "String",
            "Primary": 0,
            "Unique": 0,
            "AutoIncrement": 0,
            "Default": "",
            "Reference": {
                "Table": "",
                "Column": "",
                "Label": ""
            }
        },
        "status": {
            "Attribute": "status",
            "Name": "status",
            "Label": "Group status",
            "Null": 0,
            "Length": "1",
            "Type": "char",
            "Primary": 0,
            "Unique": 0,
            "AutoIncrement": 0,
            "Default": "",
            "Reference": {
                "Table": "",
                "Column": "",
                "Label": ""
            }
        },
        "defaultPage": {
            "Attribute": "defaultPage",
            "Name": "default_page",
            "Label": "Default Page",
            "Null": 1,
            "Length": "1000",
            "Type": "String",
            "Primary": 0,
            "Unique": "",
            "AutoIncrement": 0,
            "Default": "0",
            "Reference": {
                "Table": "",
                "Column": "",
                "Label": ""
            }
        }
    }
}